{
  "uuid": "754b52b5-d8d8-428f-af58-259df9c161e3-tr-0-1001",
  "historyId": "testlab5_6.CheckPasswordGeneration.AdvancedTest",
  "fullName": "testlab5_6.CheckPasswordGeneration.AdvancedTest",
  "labels": [
    {
      "name": "thread",
      "value": "NonParallelWorker"
    },
    {
      "name": "host",
      "value": "DESKTOP-M8AAC5R"
    },
    {
      "name": "testClass",
      "value": "testlab5_6.CheckPasswordGeneration"
    },
    {
      "name": "testMethod",
      "value": "AdvancedTest"
    },
    {
      "name": "package",
      "value": "testlab5_6.CheckPasswordGeneration"
    },
    {
      "name": "tag",
      "value": "Faker"
    },
    {
      "name": "tag",
      "value": "NUnit"
    }
  ],
  "links": [],
  "name": "AdvancedTest",
  "status": "passed",
  "statusDetails": {
    "known": false,
    "muted": false,
    "flaky": false
  },
  "stage": "finished",
  "description": "This test case is using fake test data\n",
  "steps": [
    {
      "name": "AdvancedTest",
      "status": "passed",
      "statusDetails": {
        "known": false,
        "muted": false,
        "flaky": false
      },
      "stage": "finished",
      "steps": [],
      "attachments": [
        {
          "name": "Test",
          "source": "0832958215ce4a389530d9cbe2dd2cf6-attachment.png",
          "type": "image/png"
        },
        {
          "name": "Console Output",
          "source": "ca12c3a722bf4756a647ebd69c74be04-attachment.txt",
          "type": "text/plain"
        }
      ],
      "parameters": [],
      "start": 1577302917237,
      "stop": 1577302928119
    }
  ],
  "attachments": [],
  "parameters": [],
  "start": 1577302917235,
  "stop": 1577302928127
}